m5_crypto_tb.vcd
$date
	Thu Apr 09 22:27:03 2026
$end
$version
	Icarus Verilog
$end
$timescale
	1ps
$end
$scope module pipelined_cpu_tb $end
$var reg 1 ! clk $end
$var reg 1 " rst $end
$var integer 32 # fail_count [31:0] $end
$var integer 32 $ pass_count [31:0] $end
$scope module uut $end
$var wire 1 ! clk $end
$var wire 1 % crypto_stall_wire $end
$var wire 1 & crypto_start $end
$var wire 16 ' ex_alu_a [15:0] $end
$var wire 1 ( id_is_b_type $end
$var wire 1 " rst $end
$var wire 1 ) total_stall $end
$var wire 1 * stall $end
$var wire 16 + pc_plus_1 [15:0] $end
$var wire 16 , pc_next [15:0] $end
$var wire 16 - pc [15:0] $end
$var wire 16 . mem_read_data [15:0] $end
$var wire 16 / instruction [15:0] $end
$var wire 2 0 id_wb_sel [1:0] $end
$var wire 16 1 id_target [15:0] $end
$var wire 2 2 id_shtype [1:0] $end
$var wire 16 3 id_rs2_data [15:0] $end
$var wire 3 4 id_rs2_addr [2:0] $end
$var wire 16 5 id_rs1_data [15:0] $end
$var wire 3 6 id_rs1_addr [2:0] $end
$var wire 1 7 id_reg_write $end
$var wire 3 8 id_rd [2:0] $end
$var wire 4 9 id_opcode [3:0] $end
$var wire 1 : id_mem_write $end
$var wire 1 ; id_mem_read $end
$var wire 1 < id_is_jalr $end
$var wire 1 = id_is_jal $end
$var wire 1 > id_is_fpu $end
$var wire 1 ? id_is_crypto $end
$var wire 1 @ id_is_branch $end
$var wire 16 A id_imm_sh [15:0] $end
$var wire 16 B id_imm_ext [15:0] $end
$var wire 16 C id_imm_9 [15:0] $end
$var wire 16 D id_imm_6 [15:0] $end
$var wire 3 E id_funct [2:0] $end
$var wire 1 F id_fpu_op $end
$var wire 1 G id_crypto_mode $end
$var wire 2 H id_branch_type [1:0] $end
$var wire 1 I id_alu_src $end
$var wire 4 J id_alu_control [3:0] $end
$var wire 2 K forward_b [1:0] $end
$var wire 2 L forward_a [1:0] $end
$var wire 1 M flush $end
$var wire 16 N ex_result [15:0] $end
$var wire 16 O ex_fpu_result [15:0] $end
$var wire 16 P ex_crypto_result [15:0] $end
$var wire 16 Q ex_branch_target [15:0] $end
$var wire 1 R ex_alu_zero $end
$var wire 16 S ex_alu_result [15:0] $end
$var wire 16 T ex_alu_b [15:0] $end
$var wire 1 U crypto_done $end
$var wire 1 V crypto_active $end
$var parameter 4 W OP_BEQ $end
$var parameter 4 X OP_BGE $end
$var parameter 4 Y OP_BLT $end
$var parameter 4 Z OP_BNE $end
$var parameter 4 [ OP_JAL $end
$var parameter 4 \ OP_JALR $end
$var parameter 4 ] OP_SH $end
$var parameter 4 ^ OP_SHIMM $end
$var reg 1 _ ex_branch_taken $end
$var reg 16 ` ex_fwd_a [15:0] $end
$var reg 16 a ex_fwd_b [15:0] $end
$var reg 1 b ex_mem_mem_read $end
$var reg 1 c ex_mem_mem_write $end
$var reg 16 d ex_mem_pc_plus1 [15:0] $end
$var reg 3 e ex_mem_rd [2:0] $end
$var reg 1 f ex_mem_reg_write $end
$var reg 16 g ex_mem_result [15:0] $end
$var reg 16 h ex_mem_rs2 [15:0] $end
$var reg 2 i ex_mem_wb_sel [1:0] $end
$var reg 4 j id_ex_alu_control [3:0] $end
$var reg 1 k id_ex_alu_src $end
$var reg 2 l id_ex_branch_type [1:0] $end
$var reg 1 m id_ex_crypto_mode $end
$var reg 1 n id_ex_fpu_op $end
$var reg 16 o id_ex_imm [15:0] $end
$var reg 1 p id_ex_is_branch $end
$var reg 1 q id_ex_is_crypto $end
$var reg 1 r id_ex_is_fpu $end
$var reg 1 s id_ex_is_jal $end
$var reg 1 t id_ex_is_jalr $end
$var reg 1 u id_ex_mem_read $end
$var reg 1 v id_ex_mem_write $end
$var reg 16 w id_ex_pc_plus1 [15:0] $end
$var reg 3 x id_ex_rd [2:0] $end
$var reg 1 y id_ex_reg_write $end
$var reg 16 z id_ex_rs1 [15:0] $end
$var reg 3 { id_ex_rs1_addr [2:0] $end
$var reg 16 | id_ex_rs2 [15:0] $end
$var reg 3 } id_ex_rs2_addr [2:0] $end
$var reg 16 ~ id_ex_target [15:0] $end
$var reg 2 !" id_ex_wb_sel [1:0] $end
$var reg 16 "" if_id_inst [15:0] $end
$var reg 16 #" if_id_pc [15:0] $end
$var reg 16 $" if_id_pc_plus1 [15:0] $end
$var reg 16 %" mem_wb_mem_data [15:0] $end
$var reg 16 &" mem_wb_pc_plus1 [15:0] $end
$var reg 3 '" mem_wb_rd [2:0] $end
$var reg 1 (" mem_wb_reg_write $end
$var reg 16 )" mem_wb_result [15:0] $end
$var reg 2 *" mem_wb_wb_sel [1:0] $end
$var reg 16 +" wb_data [15:0] $end
$scope module u_alu $end
$var wire 16 ," a [15:0] $end
$var wire 4 -" alu_control [3:0] $end
$var wire 16 ." b [15:0] $end
$var wire 1 R zero $end
$var parameter 32 /" ALU_ADD $end
$var parameter 32 0" ALU_AND $end
$var parameter 32 1" ALU_OR $end
$var parameter 32 2" ALU_SLL $end
$var parameter 32 3" ALU_SLT $end
$var parameter 32 4" ALU_SRA $end
$var parameter 32 5" ALU_SRL $end
$var parameter 32 6" ALU_SUB $end
$var reg 16 7" result [15:0] $end
$upscope $end
$scope module u_crypto $end
$var wire 1 ! clk $end
$var wire 16 8" data_in [15:0] $end
$var wire 1 U done $end
$var wire 16 9" key_in [15:0] $end
$var wire 1 m mode $end
$var wire 1 " rst $end
$var wire 1 & start $end
$var wire 16 :" data_out [15:0] $end
$var reg 1 V active $end
$var reg 16 ;" dec_key [15:0] $end
$var reg 16 <" enc_key [15:0] $end
$var reg 16 =" next_state [15:0] $end
$var reg 16 >" rk0 [15:0] $end
$var reg 16 ?" rk1 [15:0] $end
$var reg 16 @" rk2 [15:0] $end
$var reg 16 A" rk3 [15:0] $end
$var reg 16 B" rk4 [15:0] $end
$var reg 3 C" round_counter [2:0] $end
$var reg 16 D" saved_key [15:0] $end
$var reg 1 E" saved_mode $end
$var reg 16 F" state [15:0] $end
$scope function inv_sbox $end
$var reg 4 G" x [3:0] $end
$upscope $end
$scope function inv_sub_bytes $end
$var reg 16 H" x [15:0] $end
$upscope $end
$scope function permute $end
$var reg 16 I" x [15:0] $end
$upscope $end
$scope function rotl $end
$var reg 16 J" x [15:0] $end
$var integer 32 K" n [31:0] $end
$upscope $end
$scope function sbox $end
$var reg 4 L" x [3:0] $end
$upscope $end
$scope function sub_bytes $end
$var reg 16 M" x [15:0] $end
$upscope $end
$upscope $end
$scope module u_ctrl $end
$var wire 3 N" funct [2:0] $end
$var wire 4 O" opcode [3:0] $end
$var wire 2 P" shtype [1:0] $end
$var parameter 32 Q" OP_ADDI $end
$var parameter 32 R" OP_ANDI $end
$var parameter 32 S" OP_BEQ $end
$var parameter 32 T" OP_BGE $end
$var parameter 32 U" OP_BLT $end
$var parameter 32 V" OP_BNE $end
$var parameter 32 W" OP_JAL $end
$var parameter 32 X" OP_JALR $end
$var parameter 32 Y" OP_LH $end
$var parameter 32 Z" OP_ORI $end
$var parameter 32 [" OP_RTYPE $end
$var parameter 32 \" OP_SH $end
$var parameter 32 ]" OP_SHIMM $end
$var parameter 32 ^" OP_SLTI $end
$var parameter 32 _" OP_SPECIAL $end
$var parameter 32 `" OP_SUBI $end
$var reg 4 a" alu_control [3:0] $end
$var reg 1 I alu_src $end
$var reg 2 b" branch_type [1:0] $end
$var reg 1 G crypto_mode $end
$var reg 1 F fpu_op $end
$var reg 1 @ is_branch $end
$var reg 1 ? is_crypto $end
$var reg 1 > is_fpu $end
$var reg 1 = is_jal $end
$var reg 1 < is_jalr $end
$var reg 1 ; mem_read $end
$var reg 1 : mem_write $end
$var reg 1 7 reg_write $end
$var reg 2 c" wb_sel [1:0] $end
$upscope $end
$scope module u_dmem $end
$var wire 16 d" addr [15:0] $end
$var wire 1 ! clk $end
$var wire 1 b mem_read $end
$var wire 1 c mem_write $end
$var wire 16 e" write_data [15:0] $end
$var wire 16 f" read_data [15:0] $end
$var parameter 32 g" MEM_DEPTH $end
$var integer 32 h" i [31:0] $end
$upscope $end
$scope module u_fpu $end
$var wire 1 n fpu_op $end
$var wire 16 i" op_a [15:0] $end
$var wire 16 j" op_b [15:0] $end
$var wire 16 k" result [15:0] $end
$var wire 16 l" mul_result [15:0] $end
$var wire 16 m" add_result [15:0] $end
$var parameter 1 n" FPU_ADD $end
$var parameter 1 o" FPU_MUL $end
$scope module u_fadd $end
$var wire 1 p" a_ge_b $end
$var wire 1 q" a_inf $end
$var wire 1 r" a_nan $end
$var wire 1 s" a_zero $end
$var wire 1 t" b_inf $end
$var wire 1 u" b_nan $end
$var wire 1 v" b_zero $end
$var wire 1 w" eff_sub $end
$var wire 16 x" op_a [15:0] $end
$var wire 16 y" op_b [15:0] $end
$var wire 1 z" s_b $end
$var wire 1 {" s_a $end
$var wire 1 |" s_S $end
$var wire 1 }" s_L $end
$var wire 11 ~" m_b [10:0] $end
$var wire 11 !# m_a [10:0] $end
$var wire 11 "# m_S [10:0] $end
$var wire 11 ## m_L [10:0] $end
$var wire 10 $# f_b [9:0] $end
$var wire 10 %# f_a [9:0] $end
$var wire 5 &# exp_diff [4:0] $end
$var wire 5 '# ee_b [4:0] $end
$var wire 5 (# ee_a [4:0] $end
$var wire 5 )# e_b [4:0] $end
$var wire 5 *# e_a [4:0] $end
$var wire 5 +# e_S [4:0] $end
$var wire 5 ,# e_L [4:0] $end
$var reg 1 -# align_sticky $end
$var reg 1 .# guard $end
$var reg 5 /# lzc [4:0] $end
$var reg 26 0# mL_wide [25:0] $end
$var reg 26 1# mS_shifted [25:0] $end
$var reg 26 2# mS_wide [25:0] $end
$var reg 12 3# mant_rounded [11:0] $end
$var reg 1 4# rbit $end
$var reg 7 5# res_exp [6:0] $end
$var reg 11 6# res_mant [10:0] $end
$var reg 1 7# res_sign $end
$var reg 16 8# result [15:0] $end
$var reg 1 9# round_up $end
$var reg 1 :# sticky $end
$var reg 26 ;# sum_norm [25:0] $end
$var reg 27 <# sum_raw [26:0] $end
$var integer 32 =# i [31:0] $end
$upscope $end
$scope module u_fmul $end
$var wire 1 ># a_inf $end
$var wire 1 ?# a_nan $end
$var wire 1 @# a_zero $end
$var wire 1 A# b_inf $end
$var wire 1 B# b_nan $end
$var wire 1 C# b_zero $end
$var wire 16 D# op_a [15:0] $end
$var wire 16 E# op_b [15:0] $end
$var wire 1 F# res_sign $end
$var wire 1 G# s_b $end
$var wire 1 H# s_a $end
$var wire 11 I# m_b [10:0] $end
$var wire 11 J# m_a [10:0] $end
$var wire 10 K# f_b [9:0] $end
$var wire 10 L# f_a [9:0] $end
$var wire 5 M# e_b [4:0] $end
$var wire 5 N# e_a [4:0] $end
$var reg 8 O# exp_final [7:0] $end
$var reg 8 P# exp_raw [7:0] $end
$var reg 1 Q# guard $end
$var reg 12 R# mant_rounded [11:0] $end
$var reg 22 S# product [21:0] $end
$var reg 1 T# rbit $end
$var reg 11 U# res_mant [10:0] $end
$var reg 16 V# result [15:0] $end
$var reg 1 W# round_up $end
$var reg 5 X# shift_r [4:0] $end
$var reg 1 Y# sticky $end
$upscope $end
$upscope $end
$scope module u_fwd $end
$var wire 3 Z# ex_rs1 [2:0] $end
$var wire 3 [# ex_rs2 [2:0] $end
$var wire 3 \# mem_rd [2:0] $end
$var wire 1 f mem_reg_write $end
$var wire 3 ]# wb_rd [2:0] $end
$var wire 1 (" wb_reg_write $end
$var reg 2 ^# forward_a [1:0] $end
$var reg 2 _# forward_b [1:0] $end
$upscope $end
$scope module u_hazard $end
$var wire 1 _ branch_taken $end
$var wire 1 M flush $end
$var wire 1 u id_ex_mem_read $end
$var wire 3 `# id_ex_rd [2:0] $end
$var wire 3 a# if_id_rs1 [2:0] $end
$var wire 3 b# if_id_rs2 [2:0] $end
$var wire 1 s is_jal $end
$var wire 1 t is_jalr $end
$var wire 1 * stall $end
$upscope $end
$scope module u_imem $end
$var wire 16 c# instruction [15:0] $end
$var wire 16 d# addr [15:0] $end
$var parameter 32 e# MEM_DEPTH $end
$var integer 32 f# i [31:0] $end
$upscope $end
$scope module u_pc $end
$var wire 1 ! clk $end
$var wire 1 g# en $end
$var wire 16 h# pc_next [15:0] $end
$var wire 1 " rst $end
$var reg 16 i# pc [15:0] $end
$upscope $end
$scope module u_regfile $end
$var wire 1 ! clk $end
$var wire 3 j# rd_addr [2:0] $end
$var wire 1 (" reg_write $end
$var wire 3 k# rs1_addr [2:0] $end
$var wire 3 l# rs2_addr [2:0] $end
$var wire 1 " rst $end
$var wire 16 m# write_data [15:0] $end
$var wire 16 n# rs2_data [15:0] $end
$var wire 16 o# rs1_data [15:0] $end
$var integer 32 p# i [31:0] $end
$upscope $end
$upscope $end
$upscope $end
$enddefinitions $end
$comment Show the parameter values. $end
$dumpall
b100000000 e#
1o"
0n"
b100000000 g"
b100 `"
b1111 _"
b111 ^"
b1000 ]"
b10 \"
b0 ["
b101 Z"
b1 Y"
b1110 X"
b1101 W"
b1010 V"
b1011 U"
b1100 T"
b1001 S"
b110 R"
b11 Q"
b1 6"
b101 5"
b111 4"
b10 3"
b110 2"
b11 1"
b100 0"
b0 /"
b1000 ^
b10 ]
b1110 \
b1101 [
b1010 Z
b1011 Y
b1100 X
b1001 W
$end
#0
$dumpvars
bx p#
bx o#
bx n#
bx m#
bx l#
bx k#
bx j#
bx i#
bx h#
xg#
b100000000 f#
bx d#
bx c#
bx b#
bx a#
bx `#
bx _#
bx ^#
bx ]#
bx \#
bx [#
bx Z#
xY#
bx X#
xW#
bx V#
bx U#
xT#
bx S#
bx R#
xQ#
bx P#
bx O#
bx N#
bx M#
bx L#
bx K#
bx J#
bx I#
xH#
xG#
xF#
bx E#
bx D#
xC#
xB#
xA#
x@#
x?#
x>#
b11111111111111111111111111111111 =#
bx <#
bx ;#
x:#
x9#
b0 8#
x7#
bx 6#
b0xxxxx 5#
x4#
bx 3#
bx000000000000000 2#
bx 1#
bx000000000000000 0#
b0 /#
x.#
0-#
bx ,#
bx +#
bx *#
bx )#
bx (#
bx '#
bx &#
bx %#
bx $#
bx ##
bx "#
bx !#
bx ~"
x}"
x|"
x{"
xz"
bx y"
bx x"
xw"
xv"
xu"
xt"
xs"
xr"
xq"
xp"
b0 m"
bx l"
bx k"
bx j"
bx i"
b100000000 h"
bx f"
bx e"
bx d"
bx c"
bx b"
bx a"
bx P"
bx O"
bx N"
bx M"
bx L"
bx K"
bx J"
bx I"
bx H"
bx G"
bx F"
xE"
bx D"
bx C"
bx B"
bx A"
bx @"
bx ?"
bx >"
bx ="
bx <"
bx ;"
bx :"
bx 9"
bx 8"
bx 7"
bx ."
bx -"
bx ,"
bx +"
bx *"
bx )"
x("
bx '"
bx &"
bx %"
bx $"
bx #"
bx ""
bx !"
bx ~
bx }
bx |
bx {
bx z
xy
bx x
bx w
xv
xu
xt
xs
xr
xq
xp
bx o
xn
xm
bx l
xk
bx j
bx i
bx h
bx g
xf
bx e
bx d
xc
xb
bx a
bx `
x_
xV
xU
bx T
bx S
xR
bx Q
bx P
bx O
bx N
xM
bx L
bx K
bx J
xI
bx H
xG
xF
bx E
bx D
bx C
bx B
b0xxxx A
x@
x?
x>
x=
x<
x;
x:
bx 9
bx 8
x7
bx 6
bx 5
bx 4
bx 3
bx 2
bx 1
bx 0
bx /
bx .
bx -
bx ,
bx +
x*
x)
x(
bx '
x&
x%
b0 $
b0 #
1"
0!
$end
#5000
1p"
0w"
b0 &#
b1 ,#
b1 +#
b0 ##
b0 "#
b0 3
b0 n#
1g#
b1 '#
1v"
0t"
0u"
b0 ~"
1C#
0A#
0B#
b0 I#
0}"
0|"
b1 (#
1s"
0q"
0r"
b0 !#
0F#
b0 l"
b0 V#
1@#
0>#
0?#
b0 J#
b1001101010111100 ;"
b0 <"
0(
0G
0?
0F
0>
0<
0=
b0 H
b0 b"
0@
b0 J
b0 a"
b0 0
b0 c"
0I
0:
0;
17
b0 5
b0 o#
b0 4
b0 b#
b0 l#
b0 1
b0 B
0)
b0 O
b0 k"
0*
0z"
b0 )#
b0 $#
0G#
b0 M#
b0 K#
b11111111111111111111111111111111 =#
0{"
b0 *#
b0 %#
0H#
b0 N#
b0 L#
b11001000011010 /
b11001000011010 c#
b1 ,
b1 h#
b1101111011110000 B"
b1001101010111100 A"
b101011001111000 @"
b1001000110100 ?"
b0 J"
b1100 K"
b0 >"
b0 P
b0 :"
b0 ="
0U
b0 9
b0 O"
b0 8
b0 E
b0 N"
b0 2
b0 P"
b0 6
b0 a#
b0 k#
b0 D
b0 C
b0 A
b0 N
0&
0%
b0 Q
0M
0_
1R
b0 S
b0 7"
b0 T
b0 ."
b0 .
b0 f"
b0 a
b0 9"
b0 j"
b0 y"
b0 E#
b0 '
b0 ,"
b0 `
b0 8"
b0 i"
b0 x"
b0 D#
b0 K
b0 _#
b0 L
b0 ^#
b0 +"
b0 m#
b1 +
b0 -
b0 d#
b0 i#
b0 D"
0E"
b0 F"
b0 C"
0V
b0 $"
b0 #"
b0 ""
b0 ~
b0 w
b0 }
b0 [#
b0 {
b0 Z#
b0 x
b0 `#
b0 o
b0 |
b0 z
0m
0q
0n
0r
0t
0s
b0 l
0p
b0 j
b0 -"
b0 !"
0k
0v
0u
0y
b0 d
b0 i
0c
0b
0f
b0 e
b0 \#
b0 h
b0 e"
b0 g
b0 d"
b0 &"
b0 *"
0("
b0 '"
b0 ]#
b0 j#
b0 %"
b0 )"
b1000 p#
1!
#10000
0!
#15000
b1000 p#
1!
#20000
0!
#25000
1I
17
b11 4
b11 b#
b11 l#
b11010 B
b11010 1
b11010000000111 /
b11010000000111 c#
b10 ,
b10 h#
b11 9
b11 O"
b1 8
b10 E
b10 N"
b1 2
b1 P"
b11010 D
b11010 C
b1010 A
b10 +
b1 -
b1 d#
b1 i#
b1 $"
b11001000011010 ""
1y
0"
1!
#30000
0!
#35000
b11010 N
0R
b11010 S
b11010 7"
1I
17
b0 4
b0 b#
b0 l#
b111 B
b11010 Q
b11010 T
b11010 ."
b1000 1
b10 8
b111 E
b111 N"
b0 2
b0 P"
b111 D
b111 C
b111 A
b1111011001010010 /
b1111011001010010 c#
b11 ,
b11 h#
1f
b1 w
b11 }
b11 [#
b1 x
b1 `#
b11010 ~
b11010 o
1k
b10 $"
b1 #"
b11010000000111 ""
b11 +
b10 -
b10 d#
b10 i#
1!
#40000
0!
#45000
b111 N
1?
0I
17
b10 4
b10 b#
b10 l#
b10010 B
b111 S
b111 7"
b1111100011010011 /
b1111100011010011 c#
b100 ,
b100 h#
b10100 1
b1111 9
b1111 O"
b11 8
b10 E
b10 N"
b1 2
b1 P"
b1 6
b1 a#
b1 k#
b10010 D
b1010010 C
b10 A
b1000 Q
b111 T
b111 ."
b100 +
b11 -
b11 d#
b11 i#
b11 $"
b10 #"
b1111011001010010 ""
b10 w
b0 }
b0 [#
b10 x
b10 `#
b1000 ~
b111 o
b1 d
b1 e
b1 \#
b11010 g
b11010 d"
1("
1!
#50000
0!
#55000
b11010 ##
b1110 X#
b11110011 O#
b0 R#
0W#
1Y#
0T#
0Q#
b0 U#
b10110110 S#
b11110011 P#
1p"
b100001 3#
09#
0:#
04#
0.#
b100001 6#
b101 /#
b11111111111111111111111111111111 =#
b100001000000000000000 ;#
b0 5#
b100001000000000000000 <#
07#
b111000000000000000 1#
b111000000000000000 2#
b11010000000000000000 0#
b100001 O
b100001 k"
0s"
b11010 !#
0@#
b11010 J#
b111 "#
b100001 m"
b100001 8#
b11010 %#
b11010 L#
0v"
b111 ~"
0C#
b111 I#
0g#
b11010 '
b11010 ,"
b11010 `
b11010 8"
b11010 i"
b11010 x"
b11010 D#
b111 $#
b111 K#
1)
0R
b100001 S
b100001 7"
1G
1?
17
b10011 B
b11010 +"
b11010 m#
b111 a
b111 9"
b111 j"
b111 y"
b111 E#
b1 K
b1 _#
b10 L
b10 ^#
b10100 Q
b0 N
1&
1%
b111 T
b111 ."
b10110 1
b100 8
b11 E
b11 N"
b11 6
b11 a#
b11 k#
b10011 D
b11010011 C
b11 A
b101100001001 /
b101100001001 c#
b101 ,
b101 h#
b1 &"
b1 '"
b1 ]#
b1 j#
b11010 )"
b10 d
b10 e
b10 \#
b111 g
b111 d"
b11 w
b10 }
b10 [#
b1 {
b1 Z#
b11 x
b11 `#
b10100 ~
b10010 o
1q
0k
b100 $"
b11 #"
b1111100011010011 ""
b101 +
b100 -
b100 d#
b100 i#
1!
#60000
0!
#65000
b0 "#
b111 O
b111 k"
0p"
b111 ##
1s"
b0 !#
1@#
b0 J#
b111 3
b111 n#
b11111111111111111111111111111111 =#
b101 /#
b0 5#
b111 m"
b111 8#
b0 %#
b0 L#
b111 S
b111 7"
b1001010010111100 ;"
b111 <"
b1100111100010011 N
b0 '
b0 ,"
b0 `
b0 8"
b0 i"
b0 x"
b0 D#
b1010111011110000 B"
b1001010010111100 A"
b101011110111000 @"
b1001000001100 ?"
b111 J"
b1100 K"
b111 >"
b1100110001010111 I"
b1101 L"
b11101 M"
b1100111100010011 P
b1100111100010011 :"
b1100111100010011 ="
0&
b1 K
b1 _#
b0 L
b0 ^#
b111 +"
b111 m#
b111 D"
b11010 F"
1V
b10 &"
b10 '"
b10 ]#
b10 j#
b111 )"
1!
#70000
0!
#75000
b111011011110 N
b101011110111000 ;"
b1001000001100 <"
b111011011110 P
b111011011110 :"
b111011011110 ="
b111011101010010 I"
b1111 L"
b1101110100011111 M"
b1 C"
b1100111100010011 F"
1!
#80000
0!
#85000
b111010001110000 N
b1001000001100 ;"
b101011110111000 <"
b111010001110000 P
b111010001110000 :"
b111010001110000 ="
b111010101010 I"
b110 L"
b101100101100110 M"
b10 C"
b111011011110 F"
1!
#90000
0!
#95000
1g#
0)
0%
b1110100111111000 N
b111 ;"
b1001010010111100 <"
1U
b1110100111111000 P
b1110100111111000 :"
b1110100111111000 ="
b1110001000100 I"
b1100 L"
b1110000011001100 M"
b11 C"
b111010001110000 F"
1!
#100000
0!
#105000
14#
1-#
b11010 3
b11010 n#
19#
1:#
1.#
1p"
b1 +#
b111 "#
b101 O#
b10100110000 R#
0Y#
0Q#
0T#
b10100110000 U#
b10100111001000 S#
b101 P#
0g#
b10111111000 3#
b10111110111 6#
b0 /#
b10111110111111111111111111 ;#
b11010 5#
b10111110111111111111111111 <#
17#
b11111111111111111111111111111111 =#
b0 1#
b111000000000000000 2#
b10111111000000000000000000 0#
0|"
b11010 (#
0s"
b10111111000 !#
0@#
b10111111000 J#
1w"
b11001 &#
b11010 ,#
b10111111000 ##
b1001010100110000 l"
b1001010100110000 V#
1)
1{"
b11010 *#
b111111000 %#
1H#
b11010 N#
b111111000 L#
b1110100111111111 S
b1110100111111111 7"
b1110100111111000 O
b1110100111111000 k"
1}"
b1 '#
b111 ~"
1F#
b111 I#
1%
b1 J
b1 a"
0G
0?
17
b1 4
b1 b#
b1 l#
b1001 B
b1110100111111000 '
b1110100111111000 ,"
b1110100111111000 `
b1110100111111000 8"
b1110100111111000 i"
b1110100111111000 x"
b1110100111111000 D#
b111 T
b111 ."
b1110100111111000 m"
b1110100111111000 8#
0z"
b0 )#
b111 $#
0G#
b0 M#
b111 K#
b1001000000000000 /
b1001000000000000 c#
b110 ,
b110 h#
0U
1&
b1101 1
b0 9
b0 O"
b101 8
b1 E
b1 N"
b0 2
b0 P"
b100 6
b100 a#
b100 k#
b1001 D
b1111111100001001 C
b1001 A
b10110 Q
b1 L
b1 ^#
b10 K
b10 _#
b111 a
b111 9"
b111 j"
b111 y"
b111 E#
b110 +
b101 -
b101 d#
b101 i#
0V
b1110100111111000 F"
b101 $"
b100 #"
b101100001001 ""
b100 w
b11 {
b11 Z#
b100 x
b100 `#
b10110 ~
b10011 o
b111 |
1m
b11 d
b11 e
b11 \#
b111 h
b111 e"
b1110100111111000 g
b1110100111111000 d"
1!
#110000
0!
#115000
b111010001110000 N
b0 K
b0 _#
b1 L
b1 ^#
b1110100111111000 +"
b1110100111111000 m#
b1001010010111100 ;"
b111 <"
b111010001110000 P
b111010001110000 :"
b111010001110000 ="
b100 G"
b1110001000100 H"
b100011100001000 I"
0&
b11 &"
b11 '"
b11 ]#
b11 j#
b1110100111111000 )"
1E"
b0 C"
1V
1!
#120000
0!
#125000
b111011011110 N
b101011110111000 ;"
b1001000001100 <"
b111011011110 P
b111011011110 :"
b111011011110 ="
b1010 G"
b111010101010 H"
b111010001110000 I"
b1 C"
b111010001110000 F"
1!
#130000
0!
#135000
b1100111100010011 N
b1001000001100 ;"
b101011110111000 <"
b1100111100010011 P
b1100111100010011 :"
b1100111100010011 ="
b10 G"
b111011101010010 H"
b111011011110 I"
b10 C"
b111011011110 F"
1!
#140000
0!
#145000
1g#
0)
0%
b11010 N
b111 ;"
b1001010010111100 <"
1U
b11010 P
b11010 :"
b11010 ="
b111 G"
b1100110001010111 H"
b1100111100010011 I"
b11 C"
b1100111100010011 F"
1!
#150000
0!
#155000
b11010000000000000000 2#
b110100 O
b110100 k"
b11010 "#
0w"
b110100 3#
09#
0:#
04#
0.#
b110100 6#
b101 /#
b110100000000000000000 ;#
b0 5#
07#
b11010000000000000000 1#
b11010000000000000000 0#
b0 &#
b1 ,#
b11010 ##
1W#
1Q#
1R
b11010 ~"
b11010 I#
0}"
b1 (#
b11010 !#
0F#
b11110011 O#
b1 R#
1Y#
b0 U#
b1010100100 S#
b11110011 P#
b0 l"
b0 V#
b11010 J#
b0 3
b0 n#
b11010 T
b11010 ."
b11010 $#
b11010 K#
b110100000000000000000 <#
b11111111111111111111111111111111 =#
0-#
b110100 m"
b110100 8#
0{"
b0 *#
b11010 %#
0H#
b0 N#
b11010 L#
1(
1@
b0 J
b0 a"
07
b0 4
b0 b#
b0 l#
b0 B
b1 L
b1 ^#
b1101 Q
b11010 a
b11010 9"
b11010 j"
b11010 y"
b11010 E#
b11010 '
b11010 ,"
b11010 `
b11010 8"
b11010 i"
b11010 x"
b11010 D#
b0 N
b0 S
b0 7"
b101 1
b1001 9
b1001 O"
b0 8
b0 E
b0 N"
b0 6
b0 a#
b0 k#
b0 D
b0 C
b0 A
0U
b0 /
b0 c#
b111 ,
b111 h#
b100 d
b100 e
b100 \#
b11010 g
b11010 d"
b101 w
b1 }
b1 [#
b100 {
b100 Z#
b101 x
b101 `#
b1101 ~
b1001 o
b11010 |
0m
0q
b1 j
b1 -"
b110 $"
b101 #"
b1001000000000000 ""
0V
b11010 F"
b111 +
b110 -
b110 d#
b110 i#
1!
#160000
0!
#165000
b0 O
b0 k"
b0 "#
b0 ##
1M
b0 N
1v"
b0 ~"
1C#
b0 I#
1s"
b0 !#
1@#
b0 J#
0(
17
0@
b0 T
b0 ."
b0 $#
b0 K#
b11111111111111111111111111111111 =#
b101 /#
b0 5#
b0 m"
b0 8#
b0 %#
b0 L#
b101 ,
b101 h#
b110 1
b0 9
b0 O"
b101 Q
1_
1R
b0 S
b0 7"
b0 a
b0 9"
b0 j"
b0 y"
b0 E#
b0 '
b0 ,"
b0 `
b0 8"
b0 i"
b0 x"
b0 D#
b0 L
b0 ^#
b11010 +"
b11010 m#
b1000 +
b111 -
b111 d#
b111 i#
b111 $"
b110 #"
b0 ""
b110 w
b0 }
b0 [#
b0 {
b0 Z#
b0 x
b0 `#
b101 ~
b0 o
b0 |
1p
b0 j
b0 -"
0y
b101 d
b101 e
b101 \#
b11010 h
b11010 e"
b0 g
b0 d"
b100 &"
b100 '"
b100 ]#
b100 j#
b11010 )"
1!
#170000
0!
#175000
0M
b110 ,
b110 h#
b0 +"
b0 m#
b0 Q
0_
b0 1
b1001000000000000 /
b1001000000000000 c#
b101 &"
b101 '"
b101 ]#
b101 j#
b0 )"
b110 d
0f
b0 e
b0 \#
b0 h
b0 e"
b0 ~
b0 w
0p
b0 $"
b0 #"
b110 +
b101 -
b101 d#
b101 i#
1!
#180000
0!
#185000
1(
1@
07
b0 /
b0 c#
b111 ,
b111 h#
b101 1
b1001 9
b1001 O"
b111 +
b110 -
b110 d#
b110 i#
b110 $"
b101 #"
b1001000000000000 ""
1y
b0 d
b110 &"
0("
b0 '"
b0 ]#
b0 j#
1!
#190000
0!
#195000
1M
0(
17
0@
b101 Q
1_
b110 1
b0 9
b0 O"
b101 ,
b101 h#
b0 &"
1f
b110 w
b101 ~
1p
0y
b111 $"
b110 #"
b0 ""
b1000 +
b111 -
b111 d#
b111 i#
1!
#200000
0!
#205000
0M
b110 ,
b110 h#
b1001000000000000 /
b1001000000000000 c#
b0 1
b0 Q
0_
b110 +
b101 -
b101 d#
b101 i#
b0 $"
b0 #"
b0 ~
b0 w
0p
b110 d
0f
1("
1!
#210000
0!
#215000
1(
1@
07
b101 1
b1001 9
b1001 O"
b0 /
b0 c#
b111 ,
b111 h#
b110 &"
0("
b0 d
1y
b110 $"
b101 #"
b1001000000000000 ""
b111 +
b110 -
b110 d#
b110 i#
1!
#220000
0!
#225000
1M
0(
17
0@
b101 ,
b101 h#
b110 1
b0 9
b0 O"
b101 Q
1_
b1000 +
b111 -
b111 d#
b111 i#
b111 $"
b110 #"
b0 ""
b110 w
b101 ~
1p
0y
1f
b0 &"
1!
#230000
0!
#235000
0M
b110 ,
b110 h#
b0 Q
0_
b0 1
b1001000000000000 /
b1001000000000000 c#
1("
b110 d
0f
b0 ~
b0 w
0p
b0 $"
b0 #"
b110 +
b101 -
b101 d#
b101 i#
1!
#240000
0!
#245000
1(
1@
07
b0 /
b0 c#
b111 ,
b111 h#
b101 1
b1001 9
b1001 O"
b111 +
b110 -
b110 d#
b110 i#
b110 $"
b101 #"
b1001000000000000 ""
1y
b0 d
b110 &"
0("
1!
#250000
0!
